%YAML 1.1
%TAG !u! tag:unity3d.com,2011:
--- !u!221 &22100000
AnimatorOverrideController:
  m_ObjectHideFlags: 0
  m_CorrespondingSourceObject: {fileID: 0}
  m_PrefabInstance: {fileID: 0}
  m_PrefabAsset: {fileID: 0}
  m_Name: MainCanvasAnimation
  m_Controller: {fileID: 9100000, guid: 31219172d32174f4bbf7242577bb45b0, type: 2}
  m_Clips:
  - m_OriginalClip: {fileID: 7400000, guid: de616956f20ca1d45ab0dc9419ebe5f6, type: 2}
    m_OverrideClip: {fileID: 7400000, guid: de616956f20ca1d45ab0dc9419ebe5f6, type: 2}
  - m_OriginalClip: {fileID: 7400000, guid: d490057343d75c342b6504fcded6f841, type: 2}
    m_OverrideClip: {fileID: 7400000, guid: d490057343d75c342b6504fcded6f841, type: 2}
  - m_OriginalClip: {fileID: 7400000, guid: 91722ef555eba99498c3b8b356e1f8a4, type: 2}
    m_OverrideClip: {fileID: 7400000, guid: 91722ef555eba99498c3b8b356e1f8a4, type: 2}
  - m_OriginalClip: {fileID: 7400000, guid: 6a8bc99385392af468e23ea7dc526540, type: 2}
    m_OverrideClip: {fileID: 7400000, guid: 6a8bc99385392af468e23ea7dc526540, type: 2}
